Lab assignment 3
…
## `summarise()` has grouped output by 'origin', 'year'. You can override using the `.groups` argument.

Plot the data in the weather_delay dataset using several combinations of geom_point and geom_smooth as detailed in the following code blocks. Remember that you can adjust the appearance of the plots in the rendered notebook using the chunk options fig.width and fig.height

# Plot the delay against the average precipitation of the day
weather_delay

## # A tibble: 36 x 7
## # Groups:   origin, year [3]
##    origin  year month wind_speed  temp   precip dep_delay
##    <chr>  <int> <int>      <dbl> <dbl>    <dbl>     <dbl>
##  1 EWR     2013     1       9.87  35.6 0.00476      14.9 
##  2 EWR     2013     2      12.2   34.3 0.00572      13.1 
##  3 EWR     2013     3      11.6   40.1 0.00404      18.1 
##  4 EWR     2013     4       9.63  53.0 0.00204      17.4 
##  5 EWR     2013     5       8.49  63.3 0.00731      15.4 
##  6 EWR     2013     6       9.55  73.3 0.0121       22.5 
##  7 EWR     2013     7       9.15  80.7 0.00505      22.0 
##  8 EWR     2013     8       7.62  74.5 0.00601      13.5 
##  9 EWR     2013     9       8.03  67.3 0.00214       7.29
## 10 EWR     2013    10       8.32  59.8 0.000679      8.64
## # ... with 26 more rows
…
What about plotting the delay against the day of the year (thus ranging from 1 to 365)? You can use the days dataframe provided below to get the day of the year. Remember that there are several flights per day, so you will have to take the average delay for each day of the year.

days <- flights %>%
  distinct(month, day)%>%
  arrange(month, day) %>%
  mutate(day_of_year = row_number())
days

## # A tibble: 365 x 3
##    month   day day_of_year
##    <int> <int>       <int>
##  1     1     1           1
##  2     1     2           2
##  3     1     3           3
##  4     1     4           4
##  5     1     5           5
##  6     1     6           6
##  7     1     7           7
##  8     1     8           8
##  9     1     9           9
## 10     1    10          10
## # ... with 355 more rows
…
